10/29/19 14:52

Problem 1 (5 points):
plot wrong
Score += 0

Problem 2 (10 points):
Score += 0

Problem 3 (15 points):
Score += 0

Code Quality (5 points):
comments, plot titles, etc
Score += 0

Total score: 0/35 = 0.0%

-------------------------------------------------------------------------------

10/31/19 14:43

Problem 1 (5 points):
Score += 5

Problem 2 (10 points):
Score += 10

Problem 3 (15 points):
Score += 15

Code Quality (5 points):
Score += 5

Total score: 35/35 = 100.0%

Excellent!

-------------------------------------------------------------------------------

